{
	"main_script": "kinetic_oscillating.js",
	"icon": "kinetic_oscillating.webp",
	"width": 500,
	"height": 300,
	"animation": true,
	"dependencies": [
		"scripts/kinetic-v5.1.0.min.js"
	],
	"title": "Kinetic Oscillating",
	"version": "1.0.0",
	"description": "Kinetic.js demo #2",
	"keywords": [ "kinetic", "demo", "animation" ],
	"author": "Luc Renambot <renambot@gmail.com>",
	"license": "SAGE2-Software-License"
}
