{
	"main_script": "radar.js",
	"icon": "radar.png",
	"width": 800,
	"height": 734,
	"animation": true,
	"dependencies": [
		"scripts/d3.v3.min.js",
		"radarStations.js"
	],
	"title": "Radar Maps",
	"version": "1.2",
	"description": "Radar maps of various locations",
	"keywords": [ "maps", "d3", "geo", "weather" ],
	"author": "Andrew Johnson <lenzman@me.com>",
	"license": "SAGE2-Software-License"
}
