{
	host: "iridium.evl.uic.edu",
	port: 443,
	index_port: 80,
	background: {
		image: {
			url: "images/background/chicago_skyline_iridium.jpg",
			style: "fit"
		},
		watermark: {
			svg: "images/EVL-logo.svg",
			color: "rgba(255, 255, 255, 0.2)"
		},
		clip: true
	},
	ui: {
		clock: 12,
		show_url: true,
		show_version: true,
		maxWindowWidth : 8196,
		maxWindowHeight : 8196,
		noDropShadow: true
	},
	resolution: {
		width: 4098,
		height: 768
	},
	layout: {
		rows: 3,
		columns: 2
	},
	displays: [
		{
			row: 0,
			column: 0
		},
		{
			row: 1,
			column: 0
		},
		{
			row: 2,
			column: 0
		},
		{
			row: 0,
			column: 1
		},
		{
			row: 1,
			column: 1
		},
		{
			row: 2,
			column: 1
		}
	],
	alternate_hosts: [ 
		"localhost",
		"127.0.0.1",
		"131.193.183.199",
		"iridium.evl.optiputer.net"
	],
	remote_sites: [
		{
			name: "CAVE2",
			host: "lyra.evl.uic.edu",
			port: 443
		},
                {
                        name: "LAVA1",
                        host: "canoe-samoa.ics.hawaii.edu",
                        port: 443
                },
                {
                        name: "LAVA2",
                        host: "canoe-lava-2.manoa.hawaii.edu",
                        port: 443
                },
		{
			name: "IceWall",
			host: "thor.evl.uic.edu",
			port: 443
		},
		{
			name: "PhD Room",
			host: "dante.evl.uic.edu",
			port: 443
		},
		{
			name: "Green Room",
			host: "mesaverde.evl.uic.edu",
			port: 443
		}
	],
	experimental: {
		omicron: {
			// Standard 'SAGE' connection
			// SAGE listens for a sageinputserver to stream events
			enable: true,
			dataPort: 30005,
			
			// Touch gestures
			zoomGestureScale: 2000,
			acceleratedDragScale: 3,
			
			// Additional 'CAVE2' type connection
			// SAGE connects to an oinputserver to get events
 			useOinputserver: false,
 			inputServerIP: "131.193.77.159",
			msgPort: 28000
		}
	}
}
