{
	"main_script": "d3_sample.js",
	"icon": "d3.webp",
	"width": 800,
	"height": 600,
	"dependencies": [
		"scripts/d3.v3.min.js"
	],
	"title": "D3 example: Voronoi Geometry",
	"version": "1.0.0",
	"description": "A D3 sample portedto SAGE2",
	"keywords": [ "d3", "example", "voronoi" ],
	"author": "Luc Renambot <renambot@gmail.com>",
	"license": "SAGE2-Software-License"
}
